{
  "ab15808b77c0b7d195efae8e193e6d1cd6b6907983c42d56e43ce0186236b8c9": true,
  "285a70cd1e99c4b3e9dcff20624d9a953d4cead67ff4e22a43b07b7d63d7dd47": true,
  "b5aabe7be9a124cf42989205bace3d810941e2d5918eff75bf21cd8d240a53d5": true,
  "586c5ce307867716c02ced547ea348f1edf3bb35748535e9971a5681125bbc9e": true,
  "be683a7f4ca5fec71e7a2c4fff250299b3733c77d1aeaaff25f7821b3d7da915": true,
  "796951473c719ad8e46b7b70380efd80d26df0c11d3469d6212a56e8ef71cc18": true,
  "dd783a7cbdbb29800782f11af86c80df4961140b1a280481f64df031e2ea0ff9": true,
  "fdfeae81dec7ae31db9bee8186f561dc1b731e6d09a0de9f2401479500be9e64": true,
  "e127a5baa9e31b4a16500b1104782715e0af375128bf9b8d3ff7e7db4768ed1c": true,
  "7adc6cdde1172c646f8dda7fcb1186d148e59e6d2a40774bd7e03281a653f19c": true,
  "08489235dd50f8c8c62f484f9d69ab36e87067c4a1f677dc7bfb6bfa6fb540e1": true,
  "9e088eb0bbcaac23d4dc1522167733cb338ea4a8fc4b7fb9d9f0bbafba05f152": true
}